<svg xmlns="http://www.w3.org/2000/svg" width="16" height="15" viewBox="0 0 16 15">
    <g fill="none" fill-rule="evenodd" stroke="red" stroke-width="1.5">
        <path d="M7.5 0L7.5 15M15 7.5L0 7.5" transform="translate(.5)"/>
    </g>
</svg>
