<svg xmlns="http://www.w3.org/2000/svg" width="20" height="20" viewBox="0 0 20 20">
    <g fill="#FFF" fill-rule="evenodd" transform="translate(-1 -.813)">
        <rect width="25.667" height="3" x="-1.969" y="8.978" rx="1.5" transform="rotate(45 10.865 10.478)"/>
        <rect width="25.667" height="3" x="-1.969" y="8.978" rx="1.5" transform="scale(-1 1) rotate(45 0 -15.752)"/>
    </g>
</svg>
