<svg xmlns="http://www.w3.org/2000/svg" width="23" height="18" viewBox="0 0 23 18">
    <path fill="red" d="M10.25 17.22v-7.7H6.19V8.26c0-1.493.292-2.602.875-3.325.583-.723 1.482-1.085 2.695-1.085V0C6.867 0 4.673.852 3.18 2.555 1.687 4.258.94 6.603.94 9.59c0 2.427.397 4.97 1.19 7.63h8.12zm11.83 0v-7.7h-4.06V8.26c0-1.493.292-2.602.875-3.325.583-.723 1.482-1.085 2.695-1.085V0c-2.893 0-5.087.852-6.58 2.555-1.493 1.703-2.24 4.048-2.24 7.035 0 2.427.397 4.97 1.19 7.63h8.12z"/>
</svg>
