<svg xmlns="http://www.w3.org/2000/svg" width="22" height="18" viewBox="0 0 22 18">
    <path fill="red" d="M12.521 17.728v-7.7h4.06v-1.26c0-1.493-.291-2.602-.875-3.325-.583-.723-1.481-1.085-2.695-1.085V.508c2.894 0 5.087.852 6.58 2.555 1.494 1.703 2.24 4.048 2.24 7.035 0 2.427-.396 4.97-1.19 7.63h-8.12zm-11.83 0v-7.7h4.06v-1.26c0-1.493-.291-2.602-.875-3.325-.583-.723-1.481-1.085-2.695-1.085V.508c2.894 0 5.087.852 6.58 2.555 1.494 1.703 2.24 4.048 2.24 7.035 0 2.427-.396 4.97-1.19 7.63H.691z"/>
</svg>
